…
### Arranging

`arrange()` works similarly to `filter()` except that instead of
selecting rows, it changes their order. It takes a data frame and a set
of column names (or more complicated expressions) to order by. If you
provide more than one column name, each additional column will be used
to break ties in the values of preceding columns:

``` r
heights %>% 
  arrange(age)
```

    ## # A tibble: 1,192 × 6
    ##     earn height sex       ed   age race 
    ##    <dbl>  <dbl> <chr>  <dbl> <dbl> <chr>
    ##  1  3500   71.6 male      10    18 white
    ##  2  4000   72.7 male      13    18 white
    ##  3 15000   68.5 female    12    18 white
    ##  4  1000   64.7 female    12    18 white
    ##  5   600   70.2 female    12    18 black
    ##  6  3000   70.6 male      11    18 black
    ##  7  5000   62.5 female    12    18 white
    ##  8  1000   64.7 female    12    18 white
    ##  9  1000   65.5 male      12    18 white
    ## 10 50000   69.1 male      11    18 white
    ## # ℹ 1,182 more rows

Use `desc()` to re-order by a column in descending order:

``` r
heights %>% 
  arrange(desc(age))
```

    ## # A tibble: 1,192 × 6
    ##     earn height sex       ed   age race 
    ##    <dbl>  <dbl> <chr>  <dbl> <dbl> <chr>
    ##  1 50000   63.1 female    16    91 other
    ##  2 24000   65.0 female    12    91 white
    ##  3 27000   73.1 male      12    91 white
    ##  4 25000   67.3 male      12    89 white
    ##  5 20000   59.6 female    16    88 other
    ##  6  5000   63.1 female    10    87 white
    ##  7 25000   64.9 male      16    86 white
    ##  8  4500   58.0 female     5    85 white
    ##  9 35000   69.9 male       9    84 white
    ## 10 25000   58.9 female    15    83 white
    ## # ℹ 1,182 more rows
### Select

It’s not uncommon to get datasets with hundreds or even thousands of
variables. In this case, the first challenge is often narrowing in on
the variables you’re actually interested in. `select()` allows you to
rapidly zoom in on a useful subset using operations based on the names
of the variables.

``` r
# Select columns by name
heights %>%
  select(height, sex, age, race)
```

    ## # A tibble: 1,192 × 4
    ##    height sex      age race    
    ##     <dbl> <chr>  <dbl> <chr>   
    ##  1   74.4 male      45 white   
    ##  2   65.5 female    58 white   
    ##  3   63.6 female    29 white   
    ##  4   63.1 female    91 other   
    ##  5   63.4 female    39 white   
    ##  6   64.4 female    26 white   
    ##  7   61.7 female    49 white   
    ##  8   72.7 male      46 white   
    ##  9   72.0 male      21 hispanic
    ## 10   72.2 male      26 white   
    ## # ℹ 1,182 more rows
…
### Add new variables

Besides selecting sets of existing columns, it’s often useful to add new
columns that are functions of existing columns. That’s the job of
`mutate()`:

``` r
# we can use the pipe to first add a new column, then arrange by it, so we get a list of the tallest people (in cm)
heights %>% 
  mutate(heightcm = height * 2.54) %>% 
  arrange(-heightcm)
```

    ## # A tibble: 1,192 × 7
    ##     earn height sex      ed   age race  heightcm
    ##    <dbl>  <dbl> <chr> <dbl> <dbl> <chr>    <dbl>
    ##  1 60000   77.1 male     17    42 white     196.
    ##  2 32000   76.8 male     16    30 white     195.
    ##  3 41000   76.8 male     16    33 white     195.
    ##  4 28000   76.7 male     14    28 white     195.
    ##  5 89000   76.5 male     16    41 white     194.
    ##  6 20000   76.4 male     14    26 white     194.
    ##  7 12000   76.2 male     12    57 white     194.
    ##  8 16000   76.2 male     15    32 white     193.
    ##  9 27000   76.0 male     12    39 white     193.
    ## 10 40000   75.6 male     16    38 black     192.
    ## # ℹ 1,182 more rows
…
